{
    "AZPlans": [
    {
        "PlanName": "Platinum 250",
        "MetallicLevel": "Platinum",
        "HSA": "No",
        "DedInInd": "$250",
        "DedInFam": " $500 ",
        "DedOutInd": " $500 ",
        "DedOutFam": " $1,000 ",
        "OtherDed": "Yes",
        "OtherDedPerson": " $250 ",
        "OOPInInd": " $1,500 ",
        "OOPInFam": " $3,000 ",
        "OOPOutInd": "None",
        "OOPOutFam": "None",
        "NotOOP": "Premiums, balanced-billed charges and health care this plan doesn't cover",
        "AnnualLimit": "No",
        "NetworkProviders": "Yes",
        "Referral": "Yes. An electronic referral is required to see a Network Specialist",
        "NotCovered": "Yes",
        "Tier1": "$5 copay",
        "Tier2": "$35 copay",
        "Tier3": "20% co-ins with a $75 copay min",
        "Tier4": "30% co-ins with a $250 copay min"
    }, {
        "PlanName": "Bronze 5500",
        "MetallicLevel": "Bronze",
        "HSA": "No",
        "DedInInd": " $5,500 ",
        "DedInFam": " $11,000 ",
        "DedOutInd": " $11,000 ",
        "DedOutFam": " $22,000 ",
        "OtherDed": " No ",
        "OtherDedPerson": " N/A ",
        "OOPInInd": " $6,600 ",
        "OOPInFam": " $13,200 ",
        "OOPOutInd": "No-out-of-pocket maximum",
        "OOPOutFam": "none",
        "NotOOP": "Premiums, balanced-billed charges and health care this plan doesn't cover",
        "AnnualLimit": "No",
        "NetworkProviders": "Yes",
        "Referral": "Yes. An electronic referral is required to see a Network Specialist",
        "NotCovered": "Yes",
        "Tier1": "Retail: $10 Copay",
        "Tier2": "Retail: $50 Copay",
        "Tier3": "Retail: 20% co-ins with a $90 copay min",
        "Tier4": "Retail: 30% co-ins with a $250 copay min"
    }, {
        "PlanName": "Bronze HSA 4900",
        "MetallicLevel": "Bronze",
        "HSA": "Yes",
        "DedInInd": "$4,900",
        "DedInFam": " $9,800 ",
        "DedOutInd": " $9,800 ",
        "DedOutFam": " $19,600 ",
        "OtherDed": " No ",
        "OtherDedPerson": " N/A ",
        "OOPInInd": "$6,450",
        "OOPInFam": " $12,900 ",
        "OOPOutInd": "No-out-of-pocket maximum",
        "OOPOutFam": "none",
        "NotOOP": "Premiums, balanced-billed charges and health care this plan doesn't cover",
        "AnnualLimit": "No",
        "NetworkProviders": "Yes",
        "Referral": "Yes. An electronic referral is required to see a Network Specialist",
        "NotCovered": "Yes",
        "Tier1": "Retail: $10 copay",
        "Tier2": "Retail: $50 copay",
        "Tier3": "Retail: 20% co-ins with a $90 copay min",
        "Tier4": "Retail: 30% co-ins with a $250 copay min"
    }, {
        "PlanName": "Catastrophic",
        "MetallicLevel": "Catastropic",
        "HSA": "No",
        "DedInInd": " $6,600 ",
        "DedInFam": " $13,200 ",
        "DedOutInd": " $13,200 ",
        "DedOutFam": " $26,400 ",
        "OtherDed": "No",
        "OtherDedPerson": " N/A ",
        "OOPInInd": " $6,600 ",
        "OOPInFam": " $13,200 ",
        "OOPOutInd": "No-out-of-pocket maximum",
        "OOPOutFam": "none",
        "NotOOP": "Premiums, balance-billed charges, health care this plan doesn't cover and penalties for failure to obtain prior authorization or a referral as required. ",
        "AnnualLimit": "No",
        "NetworkProviders": "Yes",
        "Referral": "Yes. An electronic referral is required to see a Network Specialist",
        "NotCovered": "Yes",
        "Tier1": "Retail: 0% co-ins after deductible",
        "Tier2": "Retail: 0% co-ins after deductible",
        "Tier3": "Retail: 0% co-ins after deductible",
        "Tier4": "Retail: 0% co-ins after deductible"
    }, {
        "PlanName": "Compass Plus 0",
        "MetallicLevel": "Zero",
        "HSA": "No",
        "DedInInd": "$0 ",
        "DedInFam": "$0 ",
        "DedOutInd": "$0 ",
        "DedOutFam": "$0 ",
        "OtherDed": "$0 ",
        "OtherDedPerson": "$0 ",
        "OOPInInd": "$0 ",
        "OOPInFam": "$0 ",
        "OOPOutInd": "$0 ",
        "OOPOutFam": "$0",
        "NotOOP": "This plan has no out-of-pocket limit",
        "AnnualLimit": "No",
        "NetworkProviders": "Yes",
        "Referral": "Yes. An electronic referral is required to see a Network Specialist",
        "NotCovered": "Yes",
        "Tier1": "Retail: No Charge",
        "Tier2": "Retail: No Charge",
        "Tier3": "Retail: No Charge",
        "Tier4": "Retail: No Charge"
    }, {
        "PlanName": "Gold 1250",
        "MetallicLevel": "Gold",
        "HSA": "No",
        "DedInInd": " $1,250 ",
        "DedInFam": " $2,500 ",
        "DedOutInd": " $2,500 ",
        "DedOutFam": " $500 ",
        "OtherDed": "Yes",
        "OtherDedPerson": " $500 ",
        "OOPInInd": " $6,600 ",
        "OOPInFam": " $13,200 ",
        "OOPOutInd": "No-out-of-pocket maximum",
        "OOPOutFam": "none",
        "NotOOP": "Premiums, balanced-billed charges and health care this plan doesn't cover",
        "AnnualLimit": "No",
        "NetworkProviders": "Yes",
        "Referral": "Yes. An electronic referral is required to see a Network Specialist",
        "NotCovered": "Yes",
        "Tier1": "Retail: $5 copay",
        "Tier2": "Retail: $40 copay",
        "Tier3": "Retail: 20% co-ins with a $80 copay min",
        "Tier4": "Retail: 30% co-ins with a $250 copay min"
    }, {
        "PlanName": "Gold 500",
        "MetallicLevel": "Gold",
        "HSA": "No",
        "DedInInd": " $500 ",
        "DedInFam": " $1,000 ",
        "DedOutInd": " $1,000 ",
        "DedOutFam": " $2,000 ",
        "OtherDed": "Yes",
        "OtherDedPerson": " $250 ",
        "OOPInInd": " $6,600 ",
        "OOPInFam": " $13,200 ",
        "OOPOutInd": "No-out-of-pocket maximum",
        "OOPOutFam": "none",
        "NotOOP": "Premiums, balanced-billed charges and health care this plan doesn't cover",
        "AnnualLimit": "No",
        "NetworkProviders": "Yes",
        "Referral": "Yes. An electronic referral is required to see a Network Specialist",
        "NotCovered": "Yes",
        "Tier1": "$5 copay",
        "Tier2": "$40 copay",
        "Tier3": "20% co-ins with a $80 copay min",
        "Tier4": "30% co-ins with a $250 copay min"
    }, {
        "PlanName": "Silver-1",
        "MetallicLevel": "Silver",
        "HSA": "No",
        "DedInInd": " $100 ",
        "DedInFam": " $200 ",
        "DedOutInd": " $4,000 ",
        "DedOutFam": " $8,000 ",
        "OtherDed": "Yes",
        "OtherDedPerson": " $100 ",
        "OOPInInd": " $550 ",
        "OOPInFam": " $1,100 ",
        "OOPOutInd": "No-out-of-pocket maximum",
        "OOPOutFam": "none",
        "NotOOP": "Premiums, balanced-billed charges and health care this plan doesn't cover",
        "AnnualLimit": "No",
        "NetworkProviders": "Yes",
        "Referral": "Yes. An electronic referral is required to see a Network Specialist",
        "NotCovered": "Yes",
        "Tier1": "Retail: $5 copay",
        "Tier2": "Retail: $35 copay",
        "Tier3": "Retail: 20% co-ins with a $75 copay min",
        "Tier4": "Retail: 30% co-ins with a $250 copay min"
    }, {
        "PlanName": "Silver-2",
        "MetallicLevel": "Silver",
        "HSA": "No",
        "DedInInd": " $100 ",
        "DedInFam": " $200 ",
        "DedOutInd": " $7,000 ",
        "DedOutFam": " $14,000 ",
        "OtherDed": "Yes",
        "OtherDedPerson": " $100 ",
        "OOPInInd": " $550 ",
        "OOPInFam": " $1,100 ",
        "OOPOutInd": "No-out-of-pocket maximum",
        "OOPOutFam": "none",
        "NotOOP": "Premiums, balanced-billed charges and health care this plan doesn't cover",
        "AnnualLimit": "No",
        "NetworkProviders": "Yes",
        "Referral": "Yes. An electronic referral is required to see a Network Specialist",
        "NotCovered": "Yes",
        "Tier1": "Retail: $5 copay",
        "Tier2": "Retail: $35 copay",
        "Tier3": "Retail: 20% co-ins with a $75 copay min",
        "Tier4": "Retail: 30% co-ins with a $250 copay min"
    }, {
        "PlanName": "Silver 1200",
        "MetallicLevel": "Silver",
        "HSA": "No",
        "DedInInd": " $1,200 ",
        "DedInFam": " $2,400 ",
        "DedOutInd": " $4,000 ",
        "DedOutFam": " $8,000 ",
        "OtherDed": "Yes",
        "OtherDedPerson": " $500 ",
        "OOPInInd": " $5,200 ",
        "OOPInFam": " $10,400 ",
        "OOPOutInd": "No-out-of-pocket maximum",
        "OOPOutFam": "none",
        "NotOOP": "Premiums, balanced-billed charges and health care this plan doesn't cover",
        "AnnualLimit": "No",
        "NetworkProviders": "Yes",
        "Referral": "Yes. An electronic referral is required to see a Network Specialist",
        "NotCovered": "Yes",
        "Tier1": "Retail: $10 copay",
        "Tier2": "Retail: $50 copay",
        "Tier3": "Retail: 20% co-ins with a $90 copay min",
        "Tier4": "Retail: 30% co-ins with a $250 copay min"
    }, {
        "PlanName": "Silver 2000",
        "MetallicLevel": "Silver",
        "HSA": "No",
        "DedInInd": " $2,000 ",
        "DedInFam": " $4,000 ",
        "DedOutInd": " $4,000 ",
        "DedOutFam": " $8,000 ",
        "OtherDed": "Yes",
        "OtherDedPerson": " $500 ",
        "OOPInInd": " $6,600 ",
        "OOPInFam": " $13,200 ",
        "OOPOutInd": "No-out-of-pocket maximum",
        "OOPOutFam": "none",
        "NotOOP": "Premiums, balanced-billed charges and health care this plan doesn't cover",
        "AnnualLimit": "No",
        "NetworkProviders": "Yes",
        "Referral": "Yes. An electronic referral is required to see a Network Specialist",
        "NotCovered": "Yes",
        "Tier1": "Retail: $10 copay",
        "Tier2": "Retail: $50 copay",
        "Tier3": "Retail: 20% co-ins with a $90 copay min",
        "Tier4": "Retail: 30% co-ins with a $250 copay min"
    }, {
        "PlanName": "Silver 250-1",
        "MetallicLevel": "Silver",
        "HSA": "No",
        "DedInInd": " $250 ",
        "DedInFam": " $500 ",
        "DedOutInd": " $4,000 ",
        "DedOutFam": " $8,000 ",
        "OtherDed": "Yes",
        "OtherDedPerson": " $250 ",
        "OOPInInd": " $2,250 ",
        "OOPInFam": " $4,500 ",
        "OOPOutInd": "No-out-of-pocket maximum",
        "OOPOutFam": "none",
        "NotOOP": "Premiums, balanced-billed charges and health care this plan doesn't cover",
        "AnnualLimit": "No",
        "NetworkProviders": "Yes",
        "Referral": "Yes. An electronic referral is required to see a Network Specialist",
        "NotCovered": "Yes",
        "Tier1": "Retail: $5 copay",
        "Tier2": "Retail: $40 coay",
        "Tier3": "Retail: 20% co-ins with a $80 copay min",
        "Tier4": "Retail: 30% co-ins with a $250 copay min"
    }, {
        "PlanName": "Silver 250-2",
        "MetallicLevel": "Silver",
        "HSA": "No",
        "DedInInd": " $250 ",
        "DedInFam": " $500 ",
        "DedOutInd": " $7,000 ",
        "DedOutFam": " $14,000 ",
        "OtherDed": "Yes",
        "OtherDedPerson": " $250 ",
        "OOPInInd": " $2,250 ",
        "OOPInFam": " $4,500 ",
        "OOPOutInd": "No-out-of-pocket maximum",
        "OOPOutFam": "none",
        "NotOOP": "Premiums, balanced-billed charges and health care this plan doesn't cover",
        "AnnualLimit": "No",
        "NetworkProviders": "Yes",
        "Referral": "Yes. An electronic referral is required to see a Network Specialist",
        "NotCovered": "Yes",
        "Tier1": "Retail: $5 copay",
        "Tier2": "Retail: $40 copay",
        "Tier3": "Retail: 20% co-ins with a $80 copay min",
        "Tier4": "Retail: 30% co-ins with a $250 copay min"
    }, {
        "PlanName": "Silver 2500",
        "MetallicLevel": "Silver",
        "HSA": "No",
        "DedInInd": " $2,500 ",
        "DedInFam": " $5,000 ",
        "DedOutInd": " $7,000 ",
        "DedOutFam": " $14,000 ",
        "OtherDed": "Yes",
        "OtherDedPerson": " $500 ",
        "OOPInInd": " $5,200 ",
        "OOPInFam": " $10,400 ",
        "OOPOutInd": "No-out-of-pocket maximum",
        "OOPOutFam": "none",
        "NotOOP": "Premiums, balanced-billed charges and health care this plan doesn't cover",
        "AnnualLimit": "No",
        "NetworkProviders": "Yes",
        "Referral": "Yes. An electronic referral is required to see a Network Specialist",
        "NotCovered": "Yes",
        "Tier1": "Retail: $5 copay",
        "Tier2": "Retail: $40 copay",
        "Tier3": "Retail: 20% co-ins with a $80 copay min",
        "Tier4": "Retail: 30% co-ins with a $250 copay min"
    }, {
        "PlanName": "Silver 3500",
        "MetallicLevel": "Silver",
        "HSA": "No",
        "DedInInd": " $3,500 ",
        "DedInFam": " $7,000 ",
        "DedOutInd": " $7,000 ",
        "DedOutFam": " $14,000 ",
        "OtherDed": "Yes",
        "OtherDedPerson": " $1,000 ",
        "OOPInInd": " $6,600 ",
        "OOPInFam": " $13,200 ",
        "OOPOutInd": "No-out-of-pocket maximum",
        "OOPOutFam": "none",
        "NotOOP": "Premiums, balanced-billed charges and health care this plan doesn't cover",
        "AnnualLimit": "No",
        "NetworkProviders": "Yes",
        "Referral": "Yes. An electronic referral is required to see a Network Specialist",
        "NotCovered": "Yes",
        "Tier1": "Retail: $5 copay",
        "Tier2": "Retail: $45 copay",
        "Tier3": "Retail: 20% co-ins with a $85 copay min",
        "Tier4": "Retail: 30% co-ins with a $250 copay min"
    }, {
        "PlanName": "Silver HSA 1100",
        "MetallicLevel": "Silver",
        "HSA": "Yes",
        "DedInInd": "$1,100",
        "DedInFam": " $2,200 ",
        "DedOutInd": " $3,200 ",
        "DedOutFam": " $6,400 ",
        "OtherDed": "No",
        "OtherDedPerson": " N/A ",
        "OOPInInd": "$5,200",
        "OOPInFam": " $10,400 ",
        "OOPOutInd": "No-out-of-pocket maximum",
        "OOPOutFam": "none",
        "NotOOP": "Premiums, balanced-billed charges and health care this plan doesn't cover",
        "AnnualLimit": "No",
        "NetworkProviders": "Yes",
        "Referral": "Yes. An electronic referral is required to see a Network Specialist",
        "NotCovered": "Yes",
        "Tier1": "Retail: $10 copay",
        "Tier2": "Retail: $50 copay",
        "Tier3": "Retail: 20% co-ins with a $90 copay min",
        "Tier4": "Retail: 30% co-ins with a $250 copay min"
    }, {
        "PlanName": "Silver HSA 150-1",
        "MetallicLevel": "Silver",
        "HSA": "Yes",
        "DedInInd": "$150",
        "DedInFam": " $300 ",
        "DedOutInd": " $3,200 ",
        "DedOutFam": " $6,400 ",
        "OtherDed": "No",
        "OtherDedPerson": " N/A ",
        "OOPInInd": "$2,500",
        "OOPInFam": " $4,500 ",
        "OOPOutInd": "No-out-of-pocket maximum",
        "OOPOutFam": "none",
        "NotOOP": "Premiums, balanced-billed charges and health care this plan doesn't cover",
        "AnnualLimit": "No",
        "NetworkProviders": "Yes",
        "Referral": "Yes. An electronic referral is required to see a Network Specialist",
        "NotCovered": "Yes",
        "Tier1": "Retail: $5 copay",
        "Tier2": "Retail: $40 copay",
        "Tier3": "Retail: 20% co-ins with a $80 copay min",
        "Tier4": "Retail: 30% co-ins with a $250 copay min"
    }, {
        "PlanName": "Silver HSA 150-2",
        "MetallicLevel": "Silver",
        "HSA": "Yes",
        "DedInInd": "$150",
        "DedInFam": " $300 ",
        "DedOutInd": " $3,200 ",
        "DedOutFam": " $6,400 ",
        "OtherDed": "No",
        "OtherDedPerson": " N/A ",
        "OOPInInd": "$700",
        "OOPInFam": " $1,400 ",
        "OOPOutInd": "No-out-of-pocket maximum",
        "OOPOutFam": "none",
        "NotOOP": "Premiums, balanced-billed charges and health care this plan doesn't cover",
        "AnnualLimit": "No",
        "NetworkProviders": "Yes",
        "Referral": "Yes. An electronic referral is required to see a Network Specialist",
        "NotCovered": "Yes",
        "Tier1": "Retail: $5 copay",
        "Tier2": "Retail: $35 copay",
        "Tier3": "Retail: 20% co-ins with a $75 copay min",
        "Tier4": "Retail: 30% co-ins with a $250 copay min"
    }, {
        "PlanName": "Silver HSA 1600",
        "MetallicLevel": "Silver",
        "HSA": "Yes",
        "DedInInd": "$1,600",
        "DedInFam": " $3,200 ",
        "DedOutInd": " $3,200 ",
        "DedOutFam": " $6,400 ",
        "OtherDed": "No",
        "OtherDedPerson": " N/A ",
        "OOPInInd": "$6,450",
        "OOPInFam": " $12,900 ",
        "OOPOutInd": "No-out-of-pocket maximum",
        "OOPOutFam": "none",
        "NotOOP": "Premiums, balanced-billed charges and health care this plan doesn't cover",
        "AnnualLimit": "No",
        "NetworkProviders": "Yes",
        "Referral": "Yes. An electronic referral is required to see a Network Specialist",
        "NotCovered": "Yes",
        "Tier1": "Retail: $10 copay",
        "Tier2": "Retail: $50 copay",
        "Tier3": "Retail: 20% co-ins with a $90 copay min",
        "Tier4": "Retail: 30% co-ins with a $250 copay min"
    }, {
        "PlanName": "Silver HSA 1900",
        "MetallicLevel": "Silver",
        "HSA": "Yes",
        "DedInInd": "$1,900",
        "DedInFam": " $3,800 ",
        "DedOutInd": " $5,200 ",
        "DedOutFam": " $10,400 ",
        "OtherDed": "No",
        "OtherDedPerson": " N/A ",
        "OOPInInd": "$5,200",
        "OOPInFam": " $10,400 ",
        "OOPOutInd": "No-out-of-pocket maximum",
        "OOPOutFam": "none",
        "NotOOP": "Premiums, balanced-billed charges and health care this plan doesn't cover",
        "AnnualLimit": "No",
        "NetworkProviders": "Yes",
        "Referral": "Yes. An electronic referral is required to see a Network Specialist",
        "NotCovered": "Yes",
        "Tier1": "Retail: $5 copay",
        "Tier2": "Retail: $40 copay",
        "Tier3": "Retail: 20% co-ins with a $80 copay min",
        "Tier4": "Retail: 30% co-ins with a $250 copay min"
    }, {
        "PlanName": "Silver HSA 2600",
        "MetallicLevel": "Silver",
        "HSA": "Yes",
        "DedInInd": "$2,600",
        "DedInFam": " $5,200 ",
        "DedOutInd": " $5,200 ",
        "DedOutFam": " $10,400 ",
        "OtherDed": "No",
        "OtherDedPerson": " N/A ",
        "OOPInInd": "$6,450",
        "OOPInFam": " $12,900 ",
        "OOPOutInd": "No-out-of-pocket maximum",
        "OOPOutFam": "none",
        "NotOOP": "Premiums, balanced-billed charges and health care this plan doesn't cover",
        "AnnualLimit": "No",
        "NetworkProviders": "Yes",
        "Referral": "Yes. An electronic referral is required to see a Network Specialist",
        "NotCovered": "Yes",
        "Tier1": "Retail: $5 copay",
        "Tier2": "Retail: $40 copay",
        "Tier3": "Retail: 20% co-ins with a $80 copay min",
        "Tier4": "Retail: 30% co-ins with a $250 copay min"
    }, {
        "PlanName": "Silver HSA 550",
        "MetallicLevel": "Silver",
        "HSA": "Yes",
        "DedInInd": "$550",
        "DedInFam": " $1,100 ",
        "DedOutInd": " $5,200 ",
        "DedOutFam": " $10,400 ",
        "OtherDed": "No",
        "OtherDedPerson": " N/A ",
        "OOPInInd": "$2,250",
        "OOPInFam": " $4,500 ",
        "OOPOutInd": "No-out-of-pocket maximum",
        "OOPOutFam": "none",
        "NotOOP": "Premiums, balanced-billed charges and health care this plan doesn't cover",
        "AnnualLimit": "No",
        "NetworkProviders": "Yes",
        "Referral": "Yes. An electronic referral is required to see a Network Specialist",
        "NotCovered": "Yes",
        "Tier1": "Retail: $5 copay",
        "Tier2": "Retail: $35 copay",
        "Tier3": "Retail: 20% co-ins with a $75 copay min",
        "Tier4": "Retail: 30% co-ins with a $250 copay min"
    }, {
        "PlanName": "Silver HSA 75",
        "MetallicLevel": "Silver",
        "HSA": "Yes",
        "DedInInd": "$75",
        "DedInFam": " $150 ",
        "DedOutInd": " $5,200 ",
        "DedOutFam": " $10,400 ",
        "OtherDed": "No",
        "OtherDedPerson": " N/A ",
        "OOPInInd": "$1,000",
        "OOPInFam": " $2,000 ",
        "OOPOutInd": "No-out-of-pocket maximum",
        "OOPOutFam": "none",
        "NotOOP": "Premiums, balanced-billed charges and health care this plan doesn't cover",
        "AnnualLimit": "No",
        "NetworkProviders": "Yes",
        "Referral": "Yes. An electronic referral is required to see a Network Specialist",
        "NotCovered": "Yes",
        "Tier1": "Retail: $5 copay",
        "Tier2": "Retail: $35 copay",
        "Tier3": "Retail: 20% co-ins with a $75 copay min",
        "Tier4": "Retail: 30% co-ins with a $250 copay min"
        }
    ]
}